@startwbs WBS
* Nouvelle infrastructure
** Gestion de projet
*** Planification
*** Suivie & Contrôle
*** Rapports & Réunions
*** Communication
** Infrastructure
***< Étude
**** Analyse de l'existant
**** Analyse du besoin
**** Comparatifs des technologies
***** Stockage d'objets
***** Kubernetes
**** Choix des technologies
***> Mise en place
**** Création des scripts
**** Tests de conformité
**** Tests de vulnérabilité
**** Test de résilience 
**** Provisionnement
** Opérateurs
*** Développement opérateurs applications
**** Nextcloud
**** Jitsi
**** RocketChat
*** Développement opérateur Liiibre
*** Déploiement
** Clôture
*** Article de blog
*** Semaine de vacances avec l'équipe
@endwbs